…
### 2.1 Data Identify (2.5 points)

Here I select `diagnosis`, `radius_mean`, `texture_mean`,
`smoothness_mean`, `concavity_mean`, `symmetry_mean`,
`compactness_mean`, `fractal_dimension_mean` to check the dataset is
tidy or not:

``` r
q1 <- cancer_sample %>%
    select(diagnosis, radius_mean, texture_mean, smoothness_mean, concavity_mean, symmetry_mean, compactness_mean, fractal_dimension_mean)
q1
```

    ## # A tibble: 569 × 8
    ##    diagnosis radius_mean texture_mean smoothness_mean concavity_mean
    ##    <chr>           <dbl>        <dbl>           <dbl>          <dbl>
    ##  1 M                18.0         10.4          0.118          0.300 
    ##  2 M                20.6         17.8          0.0847         0.0869
    ##  3 M                19.7         21.2          0.110          0.197 
    ##  4 M                11.4         20.4          0.142          0.241 
    ##  5 M                20.3         14.3          0.100          0.198 
    ##  6 M                12.4         15.7          0.128          0.158 
    ##  7 M                18.2         20.0          0.0946         0.113 
    ##  8 M                13.7         20.8          0.119          0.0937
    ##  9 M                13           21.8          0.127          0.186 
    ## 10 M                12.5         24.0          0.119          0.227 
    ## # … with 559 more rows, and 3 more variables: symmetry_mean <dbl>,
    ## #   compactness_mean <dbl>, fractal_dimension_mean <dbl>
…
### 2.2 Tidy/Untidy Data (5 points)

#### Untidy

First the derived data obtained from `2.1` is untidied by uniting
`compactness_mean` and `texture_mean` into `error`:

``` r
q2_untidy <- q1 %>%
  unite(col = "error", c(compactness_mean, texture_mean), sep = ",")
q2_untidy
```

    ## # A tibble: 569 × 7
    ##    diagnosis radius_mean error         smoothness_mean concavity_mean symmetry_mean
    ##    <chr>           <dbl> <chr>                   <dbl>          <dbl>         <dbl>
    ##  1 M                18.0 0.2776,10.38           0.118          0.300          0.242
    ##  2 M                20.6 0.07864,17.77          0.0847         0.0869         0.181
    ##  3 M                19.7 0.1599,21.25           0.110          0.197          0.207
    ##  4 M                11.4 0.2839,20.38           0.142          0.241          0.260
    ##  5 M                20.3 0.1328,14.34           0.100          0.198          0.181
    ##  6 M                12.4 0.17,15.7              0.128          0.158          0.209
    ##  7 M                18.2 0.109,19.98            0.0946         0.113          0.179
    ##  8 M                13.7 0.1645,20.83           0.119          0.0937         0.220
    ##  9 M                13   0.1932,21.82           0.127          0.186          0.235
    ## 10 M                12.5 0.2396,24.04           0.119          0.227          0.203
    ## # … with 559 more rows, and 1 more variable: fractal_dimension_mean <dbl>
…
#### Tidy

To tidy the untidied data is quite straghtforward by just separating
`error` into `compactness_mean` and `texture_mean`, and change the type
of `error` from `chr` to `dbl`:

``` r
q2_tidy <- q2_untidy %>%
  separate("error", into = c("compactness_mean", "texture_mean"), sep = ',') %>%
  mutate(across(c("compactness_mean", "texture_mean"), as.numeric))
q2_tidy
```

    ## # A tibble: 569 × 8
    ##    diagnosis radius_mean compactness_mean texture_mean smoothness_mean
    ##    <chr>           <dbl>            <dbl>        <dbl>           <dbl>
    ##  1 M                18.0           0.278          10.4          0.118 
    ##  2 M                20.6           0.0786         17.8          0.0847
    ##  3 M                19.7           0.160          21.2          0.110 
    ##  4 M                11.4           0.284          20.4          0.142 
    ##  5 M                20.3           0.133          14.3          0.100 
    ##  6 M                12.4           0.17           15.7          0.128 
    ##  7 M                18.2           0.109          20.0          0.0946
    ##  8 M                13.7           0.164          20.8          0.119 
    ##  9 M                13             0.193          21.8          0.127 
    ## 10 M                12.5           0.240          24.0          0.119 
    ## # … with 559 more rows, and 3 more variables: concavity_mean <dbl>,
    ## #   symmetry_mean <dbl>, fractal_dimension_mean <dbl>
…
